raw_data_3000/E1/04032.CSV

Record Length,2.500000e+03,,   0.000000000000,   0.51200,
Sample Interval,2.000000e-02,,   0.020000000000,   0.45600,
Trigger Point,0.000000000000e+00,,   0.040000000000,   0.46400,
,,,   0.060000000000,   0.44800,
,,,   0.080000000000,   0.48000,
,,,   0.100000000000,   0.52800,
Source,CH2,,   0.120000000000,   0.44000,
Vertical Units,V,,   0.140000000000,   0.49600,
Vertical Scale,2.000000e-01,,   0.160000000000,   0.51200,
Vertical Offset,0.000000e+00,,   0.180000000000,   0.49600,
Horizontal Units,s,,   0.200000000000,   0.48800,
Horizontal Scale,5.000000e+00,,   0.220000000000,   0.44000,
Pt Fmt,Y,,   0.240000000000,   0.50400,
Yzero,0.000000e+00,,   0.260000000000,   0.50400,
Probe Atten,1.000000e+01,,   0.280000000000,   0.40000,
Model Number,TBS1022,,   0.300000000000,   0.48800,
Serial Number,C031739,,   0.320000000000,   0.48000,
Firmware Version,FV:v26.02,,   0.340000000000,   0.47200,
,,,0.360000000000,   0.49600,
,,,0.380000000000,   0.48000,
,,,0.400000000000,   0.56000,
,,,0.420000000000,   0.47200,
,,,0.440000000000,   0.45600,
,,,0.460000000000,   0.52000,
,,,0.480000000000,   0.48800,
,,,0.500000000000,   0.47200,
,,,0.520000000000,   0.42400,
,,,0.540000000000,   0.50400,
,,,0.560000000000,   0.53600,
,,,0.580000000000,   0.41600,
,,,0.600000000000,   0.48800,
,,,0.620000000000,   0.50400,
,,,0.640000000000,   0.48800,
,,,0.660000000000,   0.48800,
,,,0.680000000000,   0.45600,
,,,0.700000000000,   0.52000,
,,,0.720000000000,   0.48000,
,,,0.740000000000,   0.40000,
,,,0.760000000000,   0.49600,
,,,0.780000000000,   0.46400,
,,,0.800000000000,   0.44800,
,,,0.820000000000,   0.40800,
,,,0.840000000000,   0.48000,
,,,0.860000000000,   0.56000,
,,,0.880000000000,   0.44800,
,,,0.900000000000,   0.47200,
,,,0.920000000000,   0.48000,
,,,0.940000000000,   0.46400,
,,,0.960000000000,   0.47200,
,,,0.980000000000,   0.42400,
,,,1.000000000000,   0.49600,
,,,1.020000000000,   0.51200,
,,,1.040000000000,   0.40000,
,,,1.060000000000,   0.48000,
,,,1.080000000000,   0.49600,
,,,1.100000000000,   0.48800,
,,,1.120000000000,   0.45600,
,,,1.140000000000,   0.46400,
,,,1.160000000000,   0.55200,
,,,1.180000000000,   0.47200,
,,,1.200000000000,   0.43200,
,,,1.220000000000,   0.44000,
,,,1.240000000000,   0.46400,
,,,1.260000000000,   0.50400,
,,,1.280000000000,   0.41600,
,,,1.300000000000,   0.44800,
,,,1.320000000000,   0.51200,
,,,1.340000000000,   0.44800,
,,,1.360000000000,   0.48800,
,,,1.380000000000,   0.45600,
,,,1.400000000000,   0.51200,
,,,1.420000000000,   0.48000,
,,,1.440000000000,   0.43200,
,,,1.460000000000,   0.51200,
,,,1.480000000000,   0.47200,
,,,1.500000000000,   0.42400,
,,,1.520000000000,   0.44000,
,,,1.540000000000,   0.45600,
,,,1.560000000000,   0.54400,
,,,1.580000000000,   0.45600,
,,,1.600000000000,   0.44000,
,,,1.620000000000,   0.48000,
,,,1.640000000000,   0.47200,
,,,1.660000000000,   0.52000,
,,,1.680000000000,   0.43200,
,,,1.700000000000,   0.49600,
,,,1.720000000000,   0.49600,
,,,1.740000000000,   0.42400,
,,,1.760000000000,   0.48000,
,,,1.780000000000,   0.48800,
,,,1.800000000000,   0.48800,
,,,1.820000000000,   0.48000,
,,,1.840000000000,   0.47200,
,,,1.860000000000,   0.52800,
,,,1.880000000000,   0.52000,
,,,1.900000000000,   0.44800,
,,,1.920000000000,   0.46400,
,,,1.940000000000,   0.48800,
,,,1.960000000000,   0.53600,
,,,1.980000000000,   0.44800,
,,,2.000000000000,   0.42400,
,,,2.020000000000,   0.49600,
,,,2.040000000000,   0.45600,
,,,2.060000000000,   0.48000,
,,,2.080000000000,   0.45600,
,,,2.100000000000,   0.50400,
,,,2.120000000000,   0.50400,
,,,2.140000000000,   0.43200,
,,,2.160000000000,   0.49600,
,,,2.180000000000,   0.48000,
,,,2.200000000000,   0.48800,
,,,2.220000000000,   0.44800,
,,,2.240000000000,   0.41600,
,,,2.260000000000,   0.50400,
,,,2.280000000000,   0.48000,
,,,2.300000000000,   0.47200,
,,,2.320000000000,   0.43200,
,,,2.340000000000,   0.47200,
,,,2.360000000000,   0.56000,
,,,2.380000000000,   0.48000,
,,,2.400000000000,   0.46400,
,,,2.420000000000,   0.44800,
,,,2.440000000000,   0.50400,
,,,2.460000000000,   0.50400,
,,,2.480000000000,   0.42400,
,,,2.500000000000,   0.48000,
,,,2.520000000000,   0.46400,
,,,2.540000000000,   0.48000,
,,,2.560000000000,   0.48000,
,,,2.580000000000,   0.44800,
,,,2.600000000000,   0.54400,
,,,2.620000000000,   0.47200,
,,,2.640000000000,   0.44800,
,,,2.660000000000,   0.48000,
,,,2.680000000000,   0.48000,
,,,2.700000000000,   0.48800,
,,,2.720000000000,   0.40000,
,,,2.740000000000,   0.47200,
,,,2.760000000000,   0.52800,
,,,2.780000000000,   0.47200,
,,,2.800000000000,   0.49600,
,,,2.820000000000,   0.43200,
,,,2.840000000000,   0.52800,
,,,2.860000000000,   0.52000,
,,,2.880000000000,   0.45600,
,,,2.900000000000,   0.51200,
,,,2.920000000000,   0.48000,
,,,2.940000000000,   0.48000,
,,,2.960000000000,   0.44800,
,,,2.980000000000,   0.43200,
,,,3.000000000000,   0.52000,
,,,3.020000000000,   0.44800,
,,,3.040000000000,   0.44800,
,,,3.060000000000,   0.53600,
,,,3.080000000000,   0.49600,
,,,3.100000000000,   0.51200,
,,,3.120000000000,   0.42400,
,,,3.140000000000,   0.50400,
,,,3.160000000000,   0.52800,
,,,3.180000000000,   0.47200,
,,,3.200000000000,   0.46400,
,,,3.220000000000,   0.42400,
,,,3.240000000000,   0.51200,
,,,3.260000000000,   0.48000,
,,,3.280000000000,   0.44000,
,,,3.300000000000,   0.52800,
,,,3.320000000000,   0.48800,
,,,3.340000000000,   0.50400,
,,,3.360000000000,   0.47200,
,,,3.380000000000,   0.48000,
,,,3.400000000000,   0.54400,
,,,3.420000000000,   0.46400,
,,,3.440000000000,   0.45600,
,,,3.460000000000,   0.46400,
,,,3.480000000000,   0.48800,
,,,3.500000000000,   0.48800,
,,,3.520000000000,   0.41600,
,,,3.540000000000,   0.50400,
,,,3.560000000000,   0.52800,
,,,3.580000000000,   0.52000,
,,,3.600000000000,   0.48800,
,,,3.620000000000,   0.42400,
,,,3.640000000000,   0.54400,
,,,3.660000000000,   0.50400,
,,,3.680000000000,   0.46400,
,,,3.700000000000,   0.46400,
,,,3.720000000000,   0.44800,
,,,3.740000000000,   0.52800,
,,,3.760000000000,   0.44000,
,,,3.780000000000,   0.48800,
,,,3.800000000000,   0.54400,
,,,3.820000000000,   0.50400,
,,,3.840000000000,   0.49600,
,,,3.860000000000,   0.44800,
,,,3.880000000000,   0.52000,
,,,3.900000000000,   0.49600,
,,,3.920000000000,   0.44800,
,,,3.940000000000,   0.47200,
,,,3.960000000000,   0.46400,
,,,3.980000000000,   0.52000,
,,,4.000000000000,   0.44800,
,,,4.020000000000,   0.44000,
,,,4.040000000000,   0.52800,
,,,4.060000000000,   0.50400,
,,,4.080000000000,   0.50400,
,,,4.100000000000,   0.48000,
,,,4.120000000000,   0.46400,
,,,4.140000000000,   0.52800,
,,,4.160000000000,   0.44000,
,,,4.180000000000,   0.44800,
,,,4.200000000000,   0.50400,
,,,4.220000000000,   0.48000,
,,,4.240000000000,   0.47200,
,,,4.260000000000,   0.42400,
,,,4.280000000000,   0.51200,
,,,4.300000000000,   0.51200,
,,,4.320000000000,   0.48000,
,,,4.340000000000,   0.50400,
,,,4.360000000000,   0.47200,
,,,4.380000000000,   0.52000,
,,,4.400000000000,   0.44000,
,,,4.420000000000,   0.42400,
,,,4.440000000000,   0.52000,
,,,4.460000000000,   0.48000,
,,,4.480000000000,   0.48800,
,,,4.500000000000,   0.47200,
,,,4.520000000000,   0.48000,
,,,4.540000000000,   0.52800,
,,,4.560000000000,   0.44000,
,,,4.580000000000,   0.48000,
,,,4.600000000000,   0.54400,
,,,4.620000000000,   0.46400,
,,,4.640000000000,   0.45600,
,,,4.660000000000,   0.42400,
,,,4.680000000000,   0.51200,
,,,4.700000000000,   0.48000,
,,,4.720000000000,   0.40000,
,,,4.740000000000,   0.50400,
,,,4.760000000000,   0.52000,
,,,4.780000000000,   0.50400,
,,,4.800000000000,   0.47200,
,,,4.820000000000,   0.44800,
,,,4.840000000000,   0.53600,
,,,4.860000000000,   0.47200,
,,,4.880000000000,   0.45600,
,,,4.900000000000,   0.52000,
,,,4.920000000000,   0.45600,
,,,4.940000000000,   0.45600,
,,,4.960000000000,   0.43200,
,,,4.980000000000,   0.48000,
,,,5.000000000000,   0.53600,
,,,5.020000000000,   0.44800,
,,,5.040000000000,   0.50400,
,,,5.060000000000,   0.49600,
,,,5.080000000000,   0.51200,
,,,5.100000000000,   0.46400,
,,,5.120000000000,   0.40000,
,,,5.140000000000,   0.50400,
,,,5.160000000000,   0.46400,
,,,5.180000000000,   0.44800,
,,,5.200000000000,   0.48000,
,,,5.220000000000,   0.43200,
,,,5.240000000000,   0.51200,
,,,5.260000000000,   0.45600,
,,,5.280000000000,   0.48000,
,,,5.300000000000,   0.53600,
,,,5.320000000000,   0.48000,
,,,5.340000000000,   0.48000,
,,,5.360000000000,   0.44800,
,,,5.380000000000,   0.48800,
,,,5.400000000000,   0.49600,
,,,5.420000000000,   0.42400,
,,,5.440000000000,   0.44800,
,,,5.460000000000,   0.48000,
,,,5.480000000000,   0.51200,
,,,5.500000000000,   0.45600,
,,,5.520000000000,   0.40000,
,,,5.540000000000,   0.55200,
,,,5.560000000000,   0.49600,
,,,5.580000000000,   0.47200,
,,,5.600000000000,   0.48000,
,,,5.620000000000,   0.44800,
,,,5.640000000000,   0.51200,
,,,5.660000000000,   0.42400,
,,,5.680000000000,   0.44000,
,,,5.700000000000,   0.50400,
,,,5.720000000000,   0.48000,
,,,5.740000000000,   0.48000,
,,,5.760000000000,   0.43200,
,,,5.780000000000,   0.52000,
,,,5.800000000000,   0.50400,
,,,5.820000000000,   0.44800,
,,,5.840000000000,   0.48000,
,,,5.860000000000,   0.45600,
,,,5.880000000000,   0.51200,
,,,5.900000000000,   0.45600,
,,,5.920000000000,   0.42400,
,,,5.940000000000,   0.48800,
,,,5.960000000000,   0.48800,
,,,5.980000000000,   0.52000,
,,,6.000000000000,   0.42400,
,,,6.020000000000,   0.48800,
,,,6.040000000000,   0.54400,
,,,6.060000000000,   0.47200,
,,,6.080000000000,   0.48000,
,,,6.100000000000,   0.45600,
,,,6.120000000000,   0.52000,
,,,6.140000000000,   0.45600,
,,,6.160000000000,   0.40800,
,,,6.180000000000,   0.47200,
,,,6.200000000000,   0.47200,
,,,6.220000000000,   0.52800,
,,,6.240000000000,   0.42400,
,,,6.260000000000,   0.45600,
,,,6.280000000000,   0.49600,
,,,6.300000000000,   0.45600,
,,,6.320000000000,   0.48000,
,,,6.340000000000,   0.43200,
,,,6.360000000000,   0.50400,
,,,6.380000000000,   0.46400,
,,,6.400000000000,   0.40800,
,,,6.420000000000,   0.43200,
,,,6.440000000000,   0.46400,
,,,6.460000000000,   0.51200,
,,,6.480000000000,   0.45600,
,,,6.500000000000,   0.40800,
,,,6.520000000000,   0.51200,
,,,6.540000000000,   0.46400,
,,,6.560000000000,   0.46400,
,,,6.580000000000,   0.44000,
,,,6.600000000000,   0.44800,
,,,6.620000000000,   0.49600,
,,,6.640000000000,   0.35200,
,,,6.660000000000,   0.46400,
,,,6.680000000000,   0.44800,
,,,6.700000000000,   0.44800,
,,,6.720000000000,   0.45600,
,,,6.740000000000,   0.43200,
,,,6.760000000000,   0.54400,
,,,6.780000000000,   0.48000,
,,,6.800000000000,   0.42400,
,,,6.820000000000,   0.47200,
,,,6.840000000000,   0.44800,
,,,6.860000000000,   0.49600,
,,,6.880000000000,   0.41600,
,,,6.900000000000,   0.43200,
,,,6.920000000000,   0.50400,
,,,6.940000000000,   0.44000,
,,,6.960000000000,   0.45600,
,,,6.980000000000,   0.43200,
,,,7.000000000000,   0.48800,
,,,7.020000000000,   0.52000,
,,,7.040000000000,   0.40000,
,,,7.060000000000,   0.49600,
,,,7.080000000000,   0.48000,
,,,7.100000000000,   0.43200,
,,,7.120000000000,   0.44800,
,,,7.140000000000,   0.42400,
,,,7.160000000000,   0.55200,
,,,7.180000000000,   0.46400,
,,,7.200000000000,   0.42400,
,,,7.220000000000,   0.46400,
,,,7.240000000000,   0.49600,
,,,7.260000000000,   0.49600,
,,,7.280000000000,   0.43200,
,,,7.300000000000,   0.48000,
,,,7.320000000000,   0.51200,
,,,7.340000000000,   0.42400,
,,,7.360000000000,   0.46400,
,,,7.380000000000,   0.46400,
,,,7.400000000000,   0.44800,
,,,7.420000000000,   0.46400,
,,,7.440000000000,   0.41600,
,,,7.460000000000,   0.51200,
,,,7.480000000000,   0.48800,
,,,7.500000000000,   0.40000,
,,,7.520000000000,   0.46400,
,,,7.540000000000,   0.47200,
,,,7.560000000000,   0.48800,
,,,7.580000000000,   0.42400,
,,,7.600000000000,   0.42400,
,,,7.620000000000,   0.50400,
,,,7.640000000000,   0.43200,
,,,7.660000000000,   0.42400,
,,,7.680000000000,   0.44800,
,,,7.700000000000,   0.46400,
,,,7.720000000000,   0.49600,
,,,7.740000000000,   0.42400,
,,,7.760000000000,   0.50400,
,,,7.780000000000,   0.48800,
,,,7.800000000000,   0.40000,
,,,7.820000000000,   0.44800,
,,,7.840000000000,   0.45600,
,,,7.860000000000,   0.44800,
,,,7.880000000000,   0.43200,
,,,7.900000000000,   0.41600,
,,,7.920000000000,   0.48000,
,,,7.940000000000,   0.46400,
,,,7.960000000000,   0.42400,
,,,7.980000000000,   0.48000,
,,,8.000000000000,   0.48800,
,,,8.020000000000,   0.48000,
,,,8.040000000000,   0.44800,
,,,8.060000000000,   0.43200,
,,,8.080000000000,   0.45600,
,,,8.100000000000,   0.40800,
,,,8.120000000000,   0.42400,
,,,8.140000000000,   0.51200,
,,,8.160000000000,   0.44000,
,,,8.180000000000,   0.46400,
,,,8.200000000000,   0.45600,
,,,8.220000000000,   0.49600,
,,,8.240000000000,   0.48000,
,,,8.260000000000,   0.38400,
,,,8.280000000000,   0.48000,
,,,8.300000000000,   0.49600,
,,,8.320000000000,   0.40800,
,,,8.340000000000,   0.47200,
,,,8.360000000000,   0.45600,
,,,8.380000000000,   0.47200,
,,,8.400000000000,   0.42400,
,,,8.420000000000,   0.39200,
,,,8.440000000000,   0.50400,
,,,8.460000000000,   0.46400,
,,,8.480000000000,   0.44000,
,,,8.500000000000,   0.52000,
,,,8.520000000000,   0.44000,
,,,8.540000000000,   0.44800,
,,,8.560000000000,   0.41600,
,,,8.580000000000,   0.45600,
,,,8.600000000000,   0.47200,
,,,8.620000000000,   0.38400,
,,,8.640000000000,   0.44800,
,,,8.660000000000,   0.49600,
,,,8.680000000000,   0.44800,
,,,8.700000000000,   0.43200,
,,,8.720000000000,   0.44000,
,,,8.740000000000,   0.48800,
,,,8.760000000000,   0.48000,
,,,8.780000000000,   0.40000,
,,,8.800000000000,   0.47200,
,,,8.820000000000,   0.45600,
,,,8.840000000000,   0.38400,
,,,8.860000000000,   0.46400,
,,,8.880000000000,   0.45600,
,,,8.900000000000,   0.44800,
,,,8.920000000000,   0.42400,
,,,8.940000000000,   0.44800,
,,,8.960000000000,   0.54400,
,,,8.980000000000,   0.44800,
,,,9.000000000000,   0.41600,
,,,9.020000000000,   0.48000,
,,,9.040000000000,   0.43200,
,,,9.060000000000,   0.43200,
,,,9.080000000000,   0.41600,
,,,9.100000000000,   0.43200,
,,,9.120000000000,   0.47200,
,,,9.140000000000,   0.39200,
,,,9.160000000000,   0.48000,
,,,9.180000000000,   0.47200,
,,,9.200000000000,   0.38400,
,,,9.220000000000,   0.44800,
,,,9.240000000000,   0.48000,
,,,9.260000000000,   0.48000,
,,,9.280000000000,   0.43200,
,,,9.300000000000,   0.40800,
,,,9.320000000000,   0.48000,
,,,9.340000000000,   0.42400,
,,,9.360000000000,   0.43200,
,,,9.380000000000,   0.48000,
,,,9.400000000000,   0.45600,
,,,9.420000000000,   0.45600,
,,,9.440000000000,   0.46400,
,,,9.460000000000,   0.47200,
,,,9.480000000000,   0.51200,
,,,9.500000000000,   0.40000,
,,,9.520000000000,   0.44800,
,,,9.540000000000,   0.47200,
,,,9.560000000000,   0.38400,
,,,9.580000000000,   0.40000,
,,,9.600000000000,   0.47200,
,,,9.620000000000,   0.45600,
,,,9.640000000000,   0.44800,
,,,9.660000000000,   0.42400,
,,,9.680000000000,   0.49600,
,,,9.700000000000,   0.46400,
,,,9.720000000000,   0.42400,
,,,9.740000000000,   0.48800,
,,,9.760000000000,   0.44000,
,,,9.780000000000,   0.47200,
,,,9.800000000000,   0.40800,
,,,9.820000000000,   0.40000,
,,,9.840000000000,   0.49600,
,,,9.860000000000,   0.41600,
,,,9.880000000000,   0.44800,
,,,9.900000000000,   0.48800,
,,,9.920000000000,   0.45600,
,,,9.940000000000,   0.48000,
,,,9.960000000000,   0.44800,
,,,9.980000000000,   0.45600,
,,,10.000000000000,   0.47200,
,,,10.020000000000,   0.40000,
,,,10.040000000000,   0.45600,
,,,10.060000000000,   0.45600,
,,,10.080000000000,   0.46400,
,,,10.100000000000,   0.44000,
,,,10.120000000000,   0.39200,
,,,10.140000000000,   0.52000,
,,,10.160000000000,   0.46400,
,,,10.180000000000,   0.44800,
,,,10.200000000000,   0.49600,
,,,10.220000000000,   0.46400,
,,,10.240000000000,   0.46400,
,,,10.260000000000,   0.36000,
,,,10.280000000000,   0.44800,
,,,10.300000000000,   0.45600,
,,,10.320000000000,   0.40800,
,,,10.340000000000,   0.43200,
,,,10.360000000000,   0.43200,
,,,10.380000000000,   0.47200,
,,,10.400000000000,   0.41600,
,,,10.420000000000,   0.40000,
,,,10.440000000000,   0.49600,
,,,10.460000000000,   0.44800,
,,,10.480000000000,   0.44800,
,,,10.500000000000,   0.43200,
,,,10.520000000000,   0.42400,
,,,10.540000000000,   0.46400,
,,,10.560000000000,   0.37600,
,,,10.580000000000,   0.43200,
,,,10.600000000000,   0.48800,
,,,10.620000000000,   0.44800,
,,,10.640000000000,   0.47200,
,,,10.660000000000,   0.42400,
,,,10.680000000000,   0.49600,
,,,10.700000000000,   0.46400,
,,,10.720000000000,   0.40800,
,,,10.740000000000,   0.47200,
,,,10.760000000000,   0.45600,
,,,10.780000000000,   0.46400,
,,,10.800000000000,   0.37600,
,,,10.820000000000,   0.41600,
,,,10.840000000000,   0.50400,
,,,10.860000000000,   0.40800,
,,,10.880000000000,   0.45600,
,,,10.900000000000,   0.45600,
,,,10.920000000000,   0.49600,
,,,10.940000000000,   0.47200,
,,,10.960000000000,   0.42400,
,,,10.980000000000,   0.47200,
,,,11.000000000000,   0.44800,
,,,11.020000000000,   0.42400,
,,,11.040000000000,   0.42400,
,,,11.060000000000,   0.44000,
,,,11.080000000000,   0.49600,
,,,11.100000000000,   0.40800,
,,,11.120000000000,   0.42400,
,,,11.140000000000,   0.48000,
,,,11.160000000000,   0.44800,
,,,11.180000000000,   0.46400,
,,,11.200000000000,   0.43200,
,,,11.220000000000,   0.46400,
,,,11.240000000000,   0.46400,
,,,11.260000000000,   0.36800,
,,,11.280000000000,   0.44800,
,,,11.300000000000,   0.44800,
,,,11.320000000000,   0.44800,
,,,11.340000000000,   0.42400,
,,,11.360000000000,   0.42400,
,,,11.380000000000,   0.50400,
,,,11.400000000000,   0.42400,
,,,11.420000000000,   0.43200,
,,,11.440000000000,   0.48800,
,,,11.460000000000,   0.46400,
,,,11.480000000000,   0.46400,
,,,11.500000000000,   0.41600,
,,,11.520000000000,   0.42400,
,,,11.540000000000,   0.47200,
,,,11.560000000000,   0.40000,
,,,11.580000000000,   0.43200,
,,,11.600000000000,   0.44800,
,,,11.620000000000,   0.47200,
,,,11.640000000000,   0.44800,
,,,11.660000000000,   0.42400,
,,,11.680000000000,   0.49600,
,,,11.700000000000,   0.44800,
,,,11.720000000000,   0.42400,
,,,11.740000000000,   0.43200,
,,,11.760000000000,   0.41600,
,,,11.780000000000,   0.46400,
,,,11.800000000000,   0.38400,
,,,11.820000000000,   0.42400,
,,,11.840000000000,   0.48000,
,,,11.860000000000,   0.45600,
,,,11.880000000000,   0.48000,
,,,11.900000000000,   0.42400,
,,,11.920000000000,   0.48800,
,,,11.940000000000,   0.47200,
,,,11.960000000000,   0.41600,
,,,11.980000000000,   0.43200,
,,,12.000000000000,   0.44800,
,,,12.020000000000,   0.50400,
,,,12.040000000000,   0.40000,
,,,12.060000000000,   0.43200,
,,,12.080000000000,   0.46400,
,,,12.100000000000,   0.44000,
,,,12.120000000000,   0.48000,
,,,12.140000000000,   0.44000,
,,,12.160000000000,   0.48000,
,,,12.180000000000,   0.48800,
,,,12.200000000000,   0.40000,
,,,12.220000000000,   0.44800,
,,,12.240000000000,   0.47200,
,,,12.260000000000,   0.48000,
,,,12.280000000000,   0.43200,
,,,12.300000000000,   0.41600,
,,,12.320000000000,   0.50400,
,,,12.340000000000,   0.45600,
,,,12.360000000000,   0.44800,
,,,12.380000000000,   0.45600,
,,,12.400000000000,   0.48800,
,,,12.420000000000,   0.51200,
,,,12.440000000000,   0.40800,
,,,12.460000000000,   0.46400,
,,,12.480000000000,   0.44000,
,,,12.500000000000,   0.44800,
,,,12.520000000000,   0.41600,
,,,12.540000000000,   0.43200,
,,,12.560000000000,   0.52800,
,,,12.580000000000,   0.48000,
,,,12.600000000000,   0.43200,
,,,12.620000000000,   0.43200,
,,,12.640000000000,   0.44800,
,,,12.660000000000,   0.52000,
,,,12.680000000000,   0.44000,
,,,12.700000000000,   0.45600,
,,,12.720000000000,   0.44800,
,,,12.740000000000,   0.44000,
,,,12.760000000000,   0.45600,
,,,12.780000000000,   0.42400,
,,,12.800000000000,   0.50400,
,,,12.820000000000,   0.44800,
,,,12.840000000000,   0.42400,
,,,12.860000000000,   0.49600,
,,,12.880000000000,   0.48000,
,,,12.900000000000,   0.50400,
,,,12.920000000000,   0.41600,
,,,12.940000000000,   0.44800,
,,,12.960000000000,   0.50400,
