raw_data_3000/E1/04058.CSV

Record Length,2.500000e+03,, -12.500000000000,   0.45600,
Sample Interval,1.000000e-02,, -12.490000000000,   0.48800,
Trigger Point,1.250000000000e+03,, -12.480000000000,   0.40800,
,,, -12.470000000000,   0.45600,
,,, -12.460000000000,   0.47200,
,,, -12.450000000000,   0.41600,
Source,CH2,, -12.440000000000,   0.46400,
Vertical Units,V,, -12.430000000000,   0.48000,
Vertical Scale,2.000000e-01,, -12.420000000000,   0.39200,
Vertical Offset,0.000000e+00,, -12.410000000000,   0.44800,
Horizontal Units,s,, -12.400000000000,   0.45600,
Horizontal Scale,2.500000e+00,, -12.390000000000,   0.40000,
Pt Fmt,Y,, -12.380000000000,   0.46400,
Yzero,0.000000e+00,, -12.370000000000,   0.44800,
Probe Atten,1.000000e+01,, -12.360000000000,   0.44800,
Model Number,TBS1022,, -12.350000000000,   0.44800,
Serial Number,C031739,, -12.340000000000,   0.42400,
Firmware Version,FV:v26.02,, -12.330000000000,   0.42400,
,,,-012.320000000000,   0.42400,
,,,-012.310000000000,   0.39200,
,,,-012.300000000000,   0.49600,
,,,-012.290000000000,   0.41600,
,,,-012.280000000000,   0.42400,
,,,-012.270000000000,   0.49600,
,,,-012.260000000000,   0.42400,
,,,-012.250000000000,   0.43200,
,,,-012.240000000000,   0.49600,
,,,-012.230000000000,   0.40800,
,,,-012.220000000000,   0.43200,
,,,-012.210000000000,   0.51200,
,,,-012.200000000000,   0.44000,
,,,-012.190000000000,   0.42400,
,,,-012.180000000000,   0.50400,
,,,-012.170000000000,   0.42400,
,,,-012.160000000000,   0.44000,
,,,-012.150000000000,   0.45600,
,,,-012.140000000000,   0.42400,
,,,-012.130000000000,   0.42400,
,,,-012.120000000000,   0.45600,
,,,-012.110000000000,   0.40800,
,,,-012.100000000000,   0.42400,
,,,-012.090000000000,   0.42400,
,,,-012.080000000000,   0.42400,
,,,-012.070000000000,   0.43200,
,,,-012.060000000000,   0.40000,
,,,-012.050000000000,   0.43200,
,,,-012.040000000000,   0.44000,
,,,-012.030000000000,   0.42400,
,,,-012.020000000000,   0.48000,
,,,-012.010000000000,   0.44800,
,,,-012.000000000000,   0.40000,
,,,-011.990000000000,   0.48800,
,,,-011.980000000000,   0.46400,
,,,-011.970000000000,   0.40800,
,,,-011.960000000000,   0.49600,
,,,-011.950000000000,   0.44800,
,,,-011.940000000000,   0.40800,
,,,-011.930000000000,   0.50400,
,,,-011.920000000000,   0.44000,
,,,-011.910000000000,   0.39200,
,,,-011.900000000000,   0.48000,
,,,-011.890000000000,   0.41600,
,,,-011.880000000000,   0.35200,
,,,-011.870000000000,   0.48000,
,,,-011.860000000000,   0.40000,
,,,-011.850000000000,   0.42400,
,,,-011.840000000000,   0.46400,
,,,-011.830000000000,   0.40000,
,,,-011.820000000000,   0.42400,
,,,-011.810000000000,   0.41600,
,,,-011.800000000000,   0.44800,
,,,-011.790000000000,   0.44000,
,,,-011.780000000000,   0.44800,
,,,-011.770000000000,   0.43200,
,,,-011.760000000000,   0.45600,
,,,-011.750000000000,   0.41600,
,,,-011.740000000000,   0.45600,
,,,-011.730000000000,   0.46400,
,,,-011.720000000000,   0.44800,
,,,-011.710000000000,   0.45600,
,,,-011.700000000000,   0.48800,
,,,-011.690000000000,   0.40800,
,,,-011.680000000000,   0.44800,
,,,-011.670000000000,   0.48000,
,,,-011.660000000000,   0.38400,
,,,-011.650000000000,   0.48000,
,,,-011.640000000000,   0.47200,
,,,-011.630000000000,   0.36800,
,,,-011.620000000000,   0.46400,
,,,-011.610000000000,   0.45600,
,,,-011.600000000000,   0.39200,
,,,-011.590000000000,   0.44800,
,,,-011.580000000000,   0.44000,
,,,-011.570000000000,   0.36800,
,,,-011.560000000000,   0.44800,
,,,-011.550000000000,   0.46400,
,,,-011.540000000000,   0.40800,
,,,-011.530000000000,   0.48000,
,,,-011.520000000000,   0.47200,
,,,-011.510000000000,   0.42400,
,,,-011.500000000000,   0.47200,
,,,-011.490000000000,   0.44000,
,,,-011.480000000000,   0.44000,
,,,-011.470000000000,   0.47200,
,,,-011.460000000000,   0.44000,
,,,-011.450000000000,   0.48000,
,,,-011.440000000000,   0.43200,
,,,-011.430000000000,   0.43200,
,,,-011.420000000000,   0.45600,
,,,-011.410000000000,   0.42400,
,,,-011.400000000000,   0.44000,
,,,-011.390000000000,   0.48000,
,,,-011.380000000000,   0.41600,
,,,-011.370000000000,   0.43200,
,,,-011.360000000000,   0.47200,
,,,-011.350000000000,   0.37600,
,,,-011.340000000000,   0.43200,
,,,-011.330000000000,   0.48800,
,,,-011.320000000000,   0.38400,
,,,-011.310000000000,   0.44000,
,,,-011.300000000000,   0.49600,
,,,-011.290000000000,   0.38400,
,,,-011.280000000000,   0.47200,
,,,-011.270000000000,   0.52800,
,,,-011.260000000000,   0.40800,
,,,-011.250000000000,   0.46400,
,,,-011.240000000000,   0.47200,
,,,-011.230000000000,   0.41600,
,,,-011.220000000000,   0.48000,
,,,-011.210000000000,   0.45600,
,,,-011.200000000000,   0.44800,
,,,-011.190000000000,   0.44000,
,,,-011.180000000000,   0.44800,
,,,-011.170000000000,   0.42400,
,,,-011.160000000000,   0.42400,
,,,-011.150000000000,   0.40000,
,,,-011.140000000000,   0.44000,
,,,-011.130000000000,   0.44800,
,,,-011.120000000000,   0.41600,
,,,-011.110000000000,   0.45600,
,,,-011.100000000000,   0.42400,
,,,-011.090000000000,   0.37600,
,,,-011.080000000000,   0.46400,
,,,-011.070000000000,   0.43200,
,,,-011.060000000000,   0.37600,
,,,-011.050000000000,   0.52000,
,,,-011.040000000000,   0.41600,
,,,-011.030000000000,   0.42400,
,,,-011.020000000000,   0.49600,
,,,-011.010000000000,   0.40800,
,,,-011.000000000000,   0.43200,
,,,-010.990000000000,   0.49600,
,,,-010.980000000000,   0.42400,
,,,-010.970000000000,   0.42400,
,,,-010.960000000000,   0.50400,
,,,-010.950000000000,   0.42400,
,,,-010.940000000000,   0.44000,
,,,-010.930000000000,   0.48800,
,,,-010.920000000000,   0.41600,
,,,-010.910000000000,   0.42400,
,,,-010.900000000000,   0.44800,
,,,-010.890000000000,   0.40000,
,,,-010.880000000000,   0.44000,
,,,-010.870000000000,   0.44800,
,,,-010.860000000000,   0.40000,
,,,-010.850000000000,   0.47200,
,,,-010.840000000000,   0.40800,
,,,-010.830000000000,   0.43200,
,,,-010.820000000000,   0.44800,
,,,-010.810000000000,   0.40800,
,,,-010.800000000000,   0.49600,
,,,-010.790000000000,   0.44800,
,,,-010.780000000000,   0.40800,
,,,-010.770000000000,   0.47200,
,,,-010.760000000000,   0.45600,
,,,-010.750000000000,   0.39200,
,,,-010.740000000000,   0.49600,
,,,-010.730000000000,   0.44800,
,,,-010.720000000000,   0.40000,
,,,-010.710000000000,   0.50400,
,,,-010.700000000000,   0.44800,
,,,-010.690000000000,   0.42400,
,,,-010.680000000000,   0.50400,
,,,-010.670000000000,   0.44800,
,,,-010.660000000000,   0.40800,
,,,-010.650000000000,   0.46400,
,,,-010.640000000000,   0.42400,
,,,-010.630000000000,   0.40000,
,,,-010.620000000000,   0.46400,
,,,-010.610000000000,   0.42400,
,,,-010.600000000000,   0.43200,
,,,-010.590000000000,   0.41600,
,,,-010.580000000000,   0.44000,
,,,-010.570000000000,   0.43200,
,,,-010.560000000000,   0.40800,
,,,-010.550000000000,   0.47200,
,,,-010.540000000000,   0.46400,
,,,-010.530000000000,   0.42400,
,,,-010.520000000000,   0.45600,
,,,-010.510000000000,   0.49600,
,,,-010.500000000000,   0.38400,
,,,-010.490000000000,   0.45600,
,,,-010.480000000000,   0.48800,
,,,-010.470000000000,   0.40000,
,,,-010.460000000000,   0.46400,
,,,-010.450000000000,   0.48800,
,,,-010.440000000000,   0.40800,
,,,-010.430000000000,   0.44800,
,,,-010.420000000000,   0.48000,
,,,-010.410000000000,   0.35200,
,,,-010.400000000000,   0.47200,
,,,-010.390000000000,   0.41600,
,,,-010.380000000000,   0.37600,
,,,-010.370000000000,   0.46400,
,,,-010.360000000000,   0.44800,
,,,-010.350000000000,   0.42400,
,,,-010.340000000000,   0.43200,
,,,-010.330000000000,   0.42400,
,,,-010.320000000000,   0.42400,
,,,-010.310000000000,   0.45600,
,,,-010.300000000000,   0.43200,
,,,-010.290000000000,   0.48800,
,,,-010.280000000000,   0.44800,
,,,-010.270000000000,   0.44800,
,,,-010.260000000000,   0.48000,
,,,-010.250000000000,   0.42400,
,,,-010.240000000000,   0.44000,
,,,-010.230000000000,   0.52000,
,,,-010.220000000000,   0.42400,
,,,-010.210000000000,   0.42400,
,,,-010.200000000000,   0.52000,
,,,-010.190000000000,   0.40000,
,,,-010.180000000000,   0.41600,
,,,-010.170000000000,   0.49600,
,,,-010.160000000000,   0.36800,
,,,-010.150000000000,   0.40000,
,,,-010.140000000000,   0.44800,
,,,-010.130000000000,   0.39200,
,,,-010.120000000000,   0.42400,
,,,-010.110000000000,   0.44800,
,,,-010.100000000000,   0.42400,
,,,-010.090000000000,   0.41600,
,,,-010.080000000000,   0.44800,
,,,-010.070000000000,   0.47200,
,,,-010.060000000000,   0.45600,
,,,-010.050000000000,   0.44000,
,,,-010.040000000000,   0.48000,
,,,-010.030000000000,   0.46400,
,,,-010.020000000000,   0.40800,
,,,-010.010000000000,   0.47200,
,,,-010.000000000000,   0.46400,
,,,-009.990000000000,   0.42400,
,,,-009.980000000000,   0.45600,
,,,-009.970000000000,   0.44800,
,,,-009.960000000000,   0.38400,
,,,-009.950000000000,   0.49600,
,,,-009.940000000000,   0.48800,
,,,-009.930000000000,   0.40000,
,,,-009.920000000000,   0.48800,
,,,-009.910000000000,   0.42400,
,,,-009.900000000000,   0.39200,
,,,-009.890000000000,   0.46400,
,,,-009.880000000000,   0.41600,
,,,-009.870000000000,   0.35200,
,,,-009.860000000000,   0.48800,
,,,-009.850000000000,   0.38400,
,,,-009.840000000000,   0.44000,
,,,-009.830000000000,   0.48800,
,,,-009.820000000000,   0.44000,
,,,-009.810000000000,   0.41600,
,,,-009.800000000000,   0.48800,
,,,-009.790000000000,   0.42400,
,,,-009.780000000000,   0.44000,
,,,-009.770000000000,   0.45600,
,,,-009.760000000000,   0.44800,
,,,-009.750000000000,   0.47200,
,,,-009.740000000000,   0.42400,
,,,-009.730000000000,   0.46400,
,,,-009.720000000000,   0.46400,
,,,-009.710000000000,   0.42400,
,,,-009.700000000000,   0.45600,
,,,-009.690000000000,   0.47200,
,,,-009.680000000000,   0.37600,
,,,-009.670000000000,   0.43200,
,,,-009.660000000000,   0.45600,
,,,-009.650000000000,   0.38400,
,,,-009.640000000000,   0.44800,
,,,-009.630000000000,   0.49600,
,,,-009.620000000000,   0.38400,
,,,-009.610000000000,   0.46400,
,,,-009.600000000000,   0.47200,
,,,-009.590000000000,   0.37600,
,,,-009.580000000000,   0.48000,
,,,-009.570000000000,   0.48000,
,,,-009.560000000000,   0.40000,
,,,-009.550000000000,   0.47200,
,,,-009.540000000000,   0.48000,
,,,-009.530000000000,   0.41600,
,,,-009.520000000000,   0.48000,
,,,-009.510000000000,   0.47200,
,,,-009.500000000000,   0.48000,
,,,-009.490000000000,   0.45600,
,,,-009.480000000000,   0.44800,
,,,-009.470000000000,   0.44000,
,,,-009.460000000000,   0.44000,
,,,-009.450000000000,   0.44000,
,,,-009.440000000000,   0.46400,
,,,-009.430000000000,   0.44000,
,,,-009.420000000000,   0.41600,
,,,-009.410000000000,   0.46400,
,,,-009.400000000000,   0.41600,
,,,-009.390000000000,   0.39200,
,,,-009.380000000000,   0.45600,
,,,-009.370000000000,   0.40000,
,,,-009.360000000000,   0.40000,
,,,-009.350000000000,   0.52000,
,,,-009.340000000000,   0.40000,
,,,-009.330000000000,   0.43200,
,,,-009.320000000000,   0.51200,
,,,-009.310000000000,   0.40000,
,,,-009.300000000000,   0.48000,
,,,-009.290000000000,   0.46400,
,,,-009.280000000000,   0.44000,
,,,-009.270000000000,   0.44800,
,,,-009.260000000000,   0.47200,
,,,-009.250000000000,   0.42400,
,,,-009.240000000000,   0.48800,
,,,-009.230000000000,   0.43200,
,,,-009.220000000000,   0.44800,
,,,-009.210000000000,   0.44000,
,,,-009.200000000000,   0.40800,
,,,-009.190000000000,   0.45600,
,,,-009.180000000000,   0.44000,
,,,-009.170000000000,   0.40800,
,,,-009.160000000000,   0.45600,
,,,-009.150000000000,   0.44800,
,,,-009.140000000000,   0.36800,
,,,-009.130000000000,   0.49600,
,,,-009.120000000000,   0.43200,
,,,-009.110000000000,   0.38400,
,,,-009.100000000000,   0.49600,
,,,-009.090000000000,   0.44000,
,,,-009.080000000000,   0.39200,
,,,-009.070000000000,   0.48800,
,,,-009.060000000000,   0.44000,
,,,-009.050000000000,   0.41600,
,,,-009.040000000000,   0.50400,
,,,-009.030000000000,   0.44000,
,,,-009.020000000000,   0.41600,
,,,-009.010000000000,   0.49600,
,,,-009.000000000000,   0.44800,
,,,-008.990000000000,   0.44000,
,,,-008.980000000000,   0.47200,
,,,-008.970000000000,   0.41600,
,,,-008.960000000000,   0.43200,
,,,-008.950000000000,   0.43200,
,,,-008.940000000000,   0.40000,
,,,-008.930000000000,   0.44000,
,,,-008.920000000000,   0.44000,
,,,-008.910000000000,   0.42400,
,,,-008.900000000000,   0.47200,
,,,-008.890000000000,   0.37600,
,,,-008.880000000000,   0.44800,
,,,-008.870000000000,   0.47200,
,,,-008.860000000000,   0.38400,
,,,-008.850000000000,   0.47200,
,,,-008.840000000000,   0.46400,
,,,-008.830000000000,   0.41600,
,,,-008.820000000000,   0.46400,
,,,-008.810000000000,   0.50400,
,,,-008.800000000000,   0.39200,
,,,-008.790000000000,   0.48000,
,,,-008.780000000000,   0.48800,
,,,-008.770000000000,   0.40000,
,,,-008.760000000000,   0.48000,
,,,-008.750000000000,   0.47200,
,,,-008.740000000000,   0.41600,
,,,-008.730000000000,   0.44800,
,,,-008.720000000000,   0.46400,
,,,-008.710000000000,   0.40800,
,,,-008.700000000000,   0.44800,
,,,-008.690000000000,   0.40000,
,,,-008.680000000000,   0.46400,
,,,-008.670000000000,   0.43200,
,,,-008.660000000000,   0.42400,
,,,-008.650000000000,   0.44800,
,,,-008.640000000000,   0.40000,
,,,-008.630000000000,   0.40000,
,,,-008.620000000000,   0.46400,
,,,-008.610000000000,   0.41600,
,,,-008.600000000000,   0.40800,
,,,-008.590000000000,   0.47200,
,,,-008.580000000000,   0.41600,
,,,-008.570000000000,   0.43200,
,,,-008.560000000000,   0.51200,
,,,-008.550000000000,   0.40800,
,,,-008.540000000000,   0.40800,
,,,-008.530000000000,   0.50400,
,,,-008.520000000000,   0.41600,
,,,-008.510000000000,   0.43200,
,,,-008.500000000000,   0.50400,
,,,-008.490000000000,   0.40000,
,,,-008.480000000000,   0.44800,
,,,-008.470000000000,   0.49600,
,,,-008.460000000000,   0.37600,
,,,-008.450000000000,   0.42400,
,,,-008.440000000000,   0.42400,
,,,-008.430000000000,   0.43200,
,,,-008.420000000000,   0.40800,
,,,-008.410000000000,   0.44000,
,,,-008.400000000000,   0.43200,
,,,-008.390000000000,   0.44800,
,,,-008.380000000000,   0.40000,
,,,-008.370000000000,   0.43200,
,,,-008.360000000000,   0.44800,
,,,-008.350000000000,   0.41600,
,,,-008.340000000000,   0.49600,
,,,-008.330000000000,   0.47200,
,,,-008.320000000000,   0.41600,
,,,-008.310000000000,   0.46400,
,,,-008.300000000000,   0.47200,
,,,-008.290000000000,   0.36800,
,,,-008.280000000000,   0.48000,
,,,-008.270000000000,   0.45600,
,,,-008.260000000000,   0.39200,
,,,-008.250000000000,   0.51200,
,,,-008.240000000000,   0.43200,
,,,-008.230000000000,   0.42400,
,,,-008.220000000000,   0.48000,
,,,-008.210000000000,   0.43200,
,,,-008.200000000000,   0.40800,
,,,-008.190000000000,   0.43200,
,,,-008.180000000000,   0.43200,
,,,-008.170000000000,   0.42400,
,,,-008.160000000000,   0.46400,
,,,-008.150000000000,   0.41600,
,,,-008.140000000000,   0.45600,
,,,-008.130000000000,   0.43200,
,,,-008.120000000000,   0.44000,
,,,-008.110000000000,   0.44000,
,,,-008.100000000000,   0.44800,
,,,-008.090000000000,   0.43200,
,,,-008.080000000000,   0.48000,
,,,-008.070000000000,   0.44000,
,,,-008.060000000000,   0.44000,
,,,-008.050000000000,   0.48000,
,,,-008.040000000000,   0.40000,
,,,-008.030000000000,   0.46400,
,,,-008.020000000000,   0.47200,
,,,-008.010000000000,   0.40000,
,,,-008.000000000000,   0.45600,
,,,-007.990000000000,   0.48000,
,,,-007.980000000000,   0.40000,
,,,-007.970000000000,   0.44800,
,,,-007.960000000000,   0.46400,
,,,-007.950000000000,   0.36800,
,,,-007.940000000000,   0.44800,
,,,-007.930000000000,   0.44800,
,,,-007.920000000000,   0.37600,
,,,-007.910000000000,   0.44800,
,,,-007.900000000000,   0.47200,
,,,-007.890000000000,   0.38400,
,,,-007.880000000000,   0.44800,
,,,-007.870000000000,   0.46400,
,,,-007.860000000000,   0.43200,
,,,-007.850000000000,   0.47200,
,,,-007.840000000000,   0.42400,
,,,-007.830000000000,   0.48000,
,,,-007.820000000000,   0.47200,
,,,-007.810000000000,   0.44800,
,,,-007.800000000000,   0.48000,
,,,-007.790000000000,   0.43200,
,,,-007.780000000000,   0.41600,
,,,-007.770000000000,   0.48000,
,,,-007.760000000000,   0.44800,
,,,-007.750000000000,   0.40800,
,,,-007.740000000000,   0.48800,
,,,-007.730000000000,   0.41600,
,,,-007.720000000000,   0.37600,
,,,-007.710000000000,   0.46400,
,,,-007.700000000000,   0.41600,
,,,-007.690000000000,   0.40000,
,,,-007.680000000000,   0.45600,
,,,-007.670000000000,   0.40800,
,,,-007.660000000000,   0.39200,
,,,-007.650000000000,   0.49600,
,,,-007.640000000000,   0.40800,
,,,-007.630000000000,   0.43200,
,,,-007.620000000000,   0.47200,
,,,-007.610000000000,   0.40800,
,,,-007.600000000000,   0.42400,
,,,-007.590000000000,   0.44800,
,,,-007.580000000000,   0.45600,
,,,-007.570000000000,   0.44000,
,,,-007.560000000000,   0.47200,
,,,-007.550000000000,   0.43200,
,,,-007.540000000000,   0.44800,
,,,-007.530000000000,   0.41600,
,,,-007.520000000000,   0.45600,
,,,-007.510000000000,   0.45600,
,,,-007.500000000000,   0.43200,
,,,-007.490000000000,   0.44800,
,,,-007.480000000000,   0.45600,
,,,-007.470000000000,   0.38400,
,,,-007.460000000000,   0.46400,
,,,-007.450000000000,   0.47200,
,,,-007.440000000000,   0.32000,
,,,-007.430000000000,   0.47200,
,,,-007.420000000000,   0.43200,
,,,-007.410000000000,   0.38400,
,,,-007.400000000000,   0.47200,
,,,-007.390000000000,   0.46400,
,,,-007.380000000000,   0.40000,
,,,-007.370000000000,   0.48000,
,,,-007.360000000000,   0.44800,
,,,-007.350000000000,   0.40800,
,,,-007.340000000000,   0.44800,
,,,-007.330000000000,   0.46400,
,,,-007.320000000000,   0.42400,
,,,-007.310000000000,   0.46400,
,,,-007.300000000000,   0.46400,
,,,-007.290000000000,   0.46400,
,,,-007.280000000000,   0.44800,
,,,-007.270000000000,   0.43200,
,,,-007.260000000000,   0.44800,
,,,-007.250000000000,   0.44000,
,,,-007.240000000000,   0.40000,
,,,-007.230000000000,   0.48800,
,,,-007.220000000000,   0.41600,
,,,-007.210000000000,   0.40800,
,,,-007.200000000000,   0.45600,
,,,-007.190000000000,   0.37600,
,,,-007.180000000000,   0.41600,
,,,-007.170000000000,   0.48000,
,,,-007.160000000000,   0.40800,
,,,-007.150000000000,   0.42400,
,,,-007.140000000000,   0.50400,
,,,-007.130000000000,   0.37600,
,,,-007.120000000000,   0.42400,
,,,-007.110000000000,   0.52000,
,,,-007.100000000000,   0.40800,
,,,-007.090000000000,   0.44000,
,,,-007.080000000000,   0.49600,
,,,-007.070000000000,   0.41600,
,,,-007.060000000000,   0.45600,
,,,-007.050000000000,   0.49600,
,,,-007.040000000000,   0.42400,
,,,-007.030000000000,   0.45600,
,,,-007.020000000000,   0.46400,
,,,-007.010000000000,   0.39200,
,,,-007.000000000000,   0.45600,
,,,-006.990000000000,   0.41600,
,,,-006.980000000000,   0.48000,
,,,-006.970000000000,   0.43200,
,,,-006.960000000000,   0.44000,
,,,-006.950000000000,   0.42400,
,,,-006.940000000000,   0.44000,
,,,-006.930000000000,   0.37600,
,,,-006.920000000000,   0.47200,
,,,-006.910000000000,   0.42400,
,,,-006.900000000000,   0.41600,
,,,-006.890000000000,   0.49600,
,,,-006.880000000000,   0.44000,
,,,-006.870000000000,   0.40000,
,,,-006.860000000000,   0.49600,
,,,-006.850000000000,   0.44800,
,,,-006.840000000000,   0.40800,
,,,-006.830000000000,   0.51200,
,,,-006.820000000000,   0.44000,
,,,-006.810000000000,   0.41600,
,,,-006.800000000000,   0.49600,
,,,-006.790000000000,   0.42400,
,,,-006.780000000000,   0.43200,
,,,-006.770000000000,   0.48000,
,,,-006.760000000000,   0.44800,
,,,-006.750000000000,   0.41600,
,,,-006.740000000000,   0.42400,
,,,-006.730000000000,   0.45600,
,,,-006.720000000000,   0.44800,
,,,-006.710000000000,   0.43200,
,,,-006.700000000000,   0.42400,
,,,-006.690000000000,   0.44000,
,,,-006.680000000000,   0.38400,
,,,-006.670000000000,   0.41600,
,,,-006.660000000000,   0.46400,
,,,-006.650000000000,   0.40000,
,,,-006.640000000000,   0.44000,
,,,-006.630000000000,   0.48000,
,,,-006.620000000000,   0.40800,
,,,-006.610000000000,   0.45600,
,,,-006.600000000000,   0.50400,
,,,-006.590000000000,   0.37600,
,,,-006.580000000000,   0.48000,
,,,-006.570000000000,   0.46400,
,,,-006.560000000000,   0.40000,
,,,-006.550000000000,   0.46400,
